iter	Passed	Remaining
0	53	53135
1	54	27199
2	56	18705
3	57	14353
4	59	11763
5	60	10000
6	61	8738
7	64	7960
8	65	7212
9	66	6615
10	67	6103
11	68	5677
12	70	5324
13	71	5013
14	72	4738
15	73	4495
16	75	4378
17	77	4204
18	78	4033
19	79	3881
20	79	3719
21	80	3581
22	81	3451
23	82	3349
24	83	3250
25	84	3163
26	86	3100
27	87	3032
28	88	2967
29	89	2898
30	90	2833
31	91	2771
32	92	2712
33	93	2651
34	94	2596
35	94	2541
36	95	2492
37	96	2454
38	97	2412
39	99	2377
40	100	2341
41	101	2319
42	103	2306
43	104	2274
44	105	2240
45	106	2208
46	107	2178
47	108	2146
48	108	2114
49	109	2087
50	110	2060
51	111	2033
52	112	2013
53	113	1994
54	114	1973
55	116	1960
56	118	1960
57	119	1947
58	121	1931
59	122	1912
60	122	1892
61	123	1873
62	124	1853
63	125	1836
64	126	1818
65	127	1803
66	128	1787
67	129	1774
68	130	1762
69	131	1747
70	133	1743
71	135	1742
72	136	1731
73	137	1720
74	138	1706
75	139	1692
76	140	1680
77	141	1668
78	142	1657
79	143	1645
80	144	1636
81	145	1626
82	148	1635
83	148	1624
84	149	1613
85	150	1598
86	151	1587
87	152	1577
88	153	1567
89	153	1556
90	154	1547
91	155	1537
92	156	1525
93	157	1518
94	158	1511
95	159	1506
96	161	1501
97	163	1507
98	164	1499
99	165	1491
100	166	1482
101	167	1474
102	168	1466
103	169	1459
104	170	1454
105	171	1447
106	172	1442
107	173	1435
108	174	1428
109	175	1420
110	177	1419
111	179	1419
112	180	1413
113	181	1408
114	182	1401
115	182	1394
116	183	1387
117	184	1380
118	185	1373
119	186	1367
120	187	1361
121	188	1356
122	189	1350
123	190	1344
124	191	1340
125	192	1335
126	193	1331
127	194	1325
128	195	1320
129	196	1314
130	197	1308
131	198	1302
132	199	1297
133	199	1292
134	200	1287
135	201	1281
136	202	1277
137	204	1274
138	205	1272
139	206	1268
140	207	1266
141	208	1262
142	210	1259
143	211	1255
144	212	1251
145	213	1246
146	213	1241
147	214	1237
148	215	1232
149	216	1228
150	217	1225
151	219	1222
152	220	1218
153	221	1214
154	222	1211
155	223	1208
156	224	1204
157	225	1200
158	226	1196
159	226	1191
160	227	1187
161	228	1182
162	229	1178
163	230	1173
164	231	1169
165	232	1165
166	233	1162
167	234	1159
168	235	1156
169	236	1154
170	237	1151
171	238	1147
172	239	1143
173	240	1140
174	241	1136
175	241	1132
176	242	1128
177	243	1124
178	244	1120
179	245	1116
180	245	1112
181	246	1109
182	247	1105
183	248	1102
184	249	1099
185	250	1096
186	251	1094
187	252	1092
188	253	1089
189	254	1086
190	255	1084
191	256	1080
192	257	1078
193	258	1074
194	259	1071
195	260	1068
196	261	1065
197	262	1062
198	263	1060
199	264	1057
200	265	1055
201	266	1052
202	267	1050
203	268	1048
204	269	1045
205	270	1043
206	271	1041
207	273	1042
208	274	1040
209	276	1038
210	277	1036
211	278	1034
212	279	1032
213	280	1029
214	281	1026
215	282	1023
216	282	1021
217	283	1018
218	284	1015
219	285	1012
220	286	1009
221	287	1005
222	287	1002
223	288	1000
224	289	998
225	291	997
226	292	995
227	293	993
228	294	991
229	295	988
230	296	987
231	297	985
232	298	982
233	299	980
234	300	977
235	301	974
236	302	972
237	302	969
238	303	967
239	305	965
240	306	964
241	307	962
242	308	960
243	309	959
244	310	957
245	311	955
246	312	952
247	313	949
248	313	947
249	314	944
250	315	942
251	316	939
252	317	936
253	317	933
254	318	931
255	320	930
256	322	931
257	323	931
258	325	930
259	326	928
260	327	926
261	327	923
262	328	921
263	329	918
264	330	916
265	331	913
266	331	911
267	333	909
268	333	907
269	334	905
270	336	903
271	337	902
272	338	900
273	339	899
274	340	897
275	341	895
276	342	893
277	343	891
278	344	889
279	345	887
280	345	885
281	346	883
282	347	881
283	348	879
284	349	877
285	350	876
286	351	874
287	353	872
288	353	870
289	354	868
290	355	866
291	356	864
292	357	862
293	358	861
294	360	860
295	360	858
296	361	856
297	362	853
298	363	852
299	364	850
300	365	849
301	366	847
302	367	846
303	369	845
304	370	844
305	371	843
306	373	842
307	374	840
308	374	838
309	375	836
310	376	835
311	378	834
312	379	833
313	380	831
314	381	830
315	383	830
316	384	829
317	386	828
318	388	828
319	389	826
320	390	825
321	391	824
322	392	823
323	394	822
324	395	821
325	396	820
326	398	820
327	399	818
328	400	817
329	402	816
330	403	815
331	404	814
332	405	812
333	406	811
334	408	810
335	413	816
336	414	816
337	416	816
338	418	815
339	419	814
340	422	815
341	423	814
342	424	813
343	425	811
344	426	809
345	427	807
346	428	805
347	429	803
348	430	802
349	431	800
350	431	798
351	433	797
352	434	795
353	435	794
354	436	793
355	437	792
356	439	790
357	440	789
358	441	787
359	442	786
360	443	784
361	444	782
362	444	780
363	445	779
364	447	777
365	448	776
366	449	775
367	450	773
368	452	773
369	453	772
370	454	770
371	455	769
372	457	768
373	458	767
374	459	765
375	460	764
376	461	762
377	463	762
378	464	761
379	465	760
380	467	759
381	470	761
382	472	760
383	473	759
384	474	757
385	475	756
386	476	754
387	477	753
388	479	752
389	480	751
390	481	750
391	483	749
392	484	747
393	485	746
394	486	745
395	487	743
396	488	742
397	490	742
398	494	744
399	495	743
400	497	742
401	498	741
402	499	739
403	500	738
404	502	737
405	502	735
406	503	734
407	504	732
408	505	730
409	506	729
410	508	728
411	509	727
412	511	727
413	513	727
414	515	726
415	516	724
416	517	722
417	518	721
418	519	720
419	520	718
420	521	717
421	523	716
422	524	715
423	526	714
424	527	713
425	528	712
426	529	711
427	531	709
428	532	709
429	534	708
430	535	706
431	537	706
432	538	705
433	539	703
434	541	702
435	542	701
436	543	700
437	544	699
438	545	697
439	546	696
440	548	694
441	549	693
442	550	692
443	551	691
444	553	690
445	554	688
446	555	687
447	556	685
448	557	684
449	558	682
450	559	680
451	560	679
452	561	677
453	562	676
454	563	674
455	564	673
456	565	672
457	566	670
458	568	669
459	569	668
460	570	666
461	571	665
462	572	663
463	573	662
464	574	660
465	574	658
466	575	657
467	576	655
468	577	654
469	578	652
470	580	651
471	581	650
472	582	649
473	583	647
474	584	646
475	585	644
476	586	643
477	587	641
478	588	640
479	589	638
480	590	636
481	591	635
482	591	633
483	593	632
484	594	631
485	595	629
486	596	628
487	598	627
488	599	626
489	600	625
490	601	623
491	602	622
492	603	620
493	604	619
494	605	617
495	606	615
496	607	614
497	608	613
498	609	611
499	610	610
500	611	609
501	612	607
502	613	606
503	614	604
504	615	603
505	616	601
506	617	600
507	617	598
508	618	596
509	619	595
510	620	593
511	621	591
512	621	590
513	623	589
514	624	588
515	626	587
516	627	586
517	629	585
518	630	584
519	631	582
520	632	581
521	633	579
522	634	578
523	635	577
524	636	575
525	637	574
526	638	573
527	639	571
528	641	570
529	642	569
530	644	569
531	646	568
532	647	567
533	648	566
534	650	565
535	651	564
536	652	562
537	653	561
538	655	560
539	656	558
540	657	557
541	658	556
542	659	555
543	661	554
544	662	552
545	663	551
546	664	550
547	665	548
548	666	547
549	667	545
550	668	544
551	669	543
552	670	541
553	671	540
554	673	539
555	674	538
556	675	537
557	676	535
558	677	534
559	678	533
560	679	532
561	680	530
562	681	529
563	683	528
564	684	526
565	685	525
566	687	525
567	688	523
568	689	522
569	690	521
570	691	519
571	692	518
572	693	516
573	694	515
574	695	513
575	696	512
576	697	511
577	698	510
578	699	508
579	703	509
580	705	508
581	706	507
582	709	507
583	710	506
584	711	504
585	712	503
586	713	502
587	714	500
588	715	499
589	716	498
590	718	496
591	719	495
592	720	494
593	721	493
594	722	491
595	723	490
596	724	489
597	725	487
598	726	486
599	727	485
600	728	483
601	729	482
602	731	481
603	731	479
604	732	478
605	734	477
606	735	476
607	737	475
608	738	474
609	739	473
610	740	471
611	741	470
612	742	468
613	743	467
614	744	465
615	745	464
616	745	463
617	746	461
618	747	460
619	748	458
620	749	457
621	750	456
622	751	454
623	752	453
624	753	452
625	754	450
626	755	449
627	756	448
628	757	446
629	758	445
630	759	443
631	760	442
632	761	441
633	761	439
634	763	438
635	764	437
636	765	436
637	766	434
638	767	433
639	768	432
640	769	431
641	770	429
642	771	428
643	772	427
644	773	425
645	774	424
646	775	423
647	776	421
648	777	420
649	778	419
650	780	418
651	781	417
652	782	415
653	783	414
654	785	413
655	786	412
656	786	410
657	787	409
658	788	408
659	789	406
660	790	405
661	791	404
662	792	402
663	792	401
664	793	399
665	794	398
666	795	397
667	796	395
668	797	394
669	798	393
670	798	391
671	799	390
672	800	389
673	801	387
674	802	386
675	804	385
676	805	384
677	806	382
678	806	381
679	807	380
680	808	378
681	809	377
682	810	376
683	811	374
684	811	373
685	812	371
686	813	370
687	814	369
688	815	368
689	817	367
690	818	365
691	819	364
692	820	363
693	820	361
694	821	360
695	822	359
696	823	357
697	824	356
698	824	355
699	825	353
700	826	352
701	827	351
702	828	349
703	829	348
704	830	347
705	831	346
706	832	345
707	833	343
708	834	342
709	835	341
710	836	340
711	837	338
712	838	337
713	839	336
714	839	334
715	840	333
716	841	332
717	842	330
718	843	329
719	844	328
720	845	327
721	846	325
722	848	324
723	849	323
724	850	322
725	851	321
726	852	320
727	853	318
728	853	317
729	854	316
730	855	314
731	856	313
732	857	312
733	857	310
734	858	309
735	859	308
736	860	307
737	861	305
738	862	304
739	864	303
740	865	302
741	866	301
742	867	300
743	868	298
744	869	297
745	869	296
746	870	294
747	871	293
748	872	292
749	873	291
750	873	289
751	874	288
752	876	287
753	877	286
754	878	285
755	879	283
756	880	282
757	881	281
758	882	280
759	883	278
760	884	277
761	885	276
762	886	275
763	886	273
764	887	272
765	888	271
766	889	270
767	890	269
768	892	267
769	893	266
770	894	265
771	895	264
772	896	263
773	897	261
774	898	260
775	898	259
776	899	258
777	900	256
778	901	255
779	902	254
780	903	253
781	903	251
782	904	250
783	905	249
784	907	248
785	908	247
786	909	246
787	910	245
788	912	243
789	913	242
790	914	241
791	915	240
792	916	239
793	917	238
794	919	237
795	920	235
796	921	234
797	922	233
798	923	232
799	924	231
800	925	230
801	926	228
802	927	227
803	928	226
804	929	225
805	930	223
806	931	222
807	932	221
808	932	220
809	933	218
810	934	217
811	935	216
812	936	215
813	937	214
814	938	213
815	939	211
816	941	210
817	942	209
818	943	208
819	943	207
820	944	205
821	945	204
822	946	203
823	947	202
824	948	201
825	948	199
826	949	198
827	950	197
828	951	196
829	952	195
830	953	193
831	954	192
832	955	191
833	957	190
834	958	189
835	958	188
836	959	186
837	960	185
838	961	184
839	962	183
840	963	182
841	964	181
842	966	179
843	967	178
844	968	177
845	970	176
846	971	175
847	973	174
848	974	173
849	975	172
850	976	170
851	976	169
852	977	168
853	978	167
854	979	166
855	980	164
856	981	163
857	982	162
858	984	161
859	985	160
860	986	159
861	987	158
862	988	156
863	989	155
864	990	154
865	991	153
866	992	152
867	992	151
868	993	149
869	994	148
870	995	147
871	996	146
872	997	145
873	998	143
874	999	142
875	1000	141
876	1001	140
877	1002	139
878	1003	138
879	1004	136
880	1005	135
881	1006	134
882	1007	133
883	1007	132
884	1008	131
885	1009	129
886	1010	128
887	1011	127
888	1012	126
889	1013	125
890	1014	124
891	1015	122
892	1016	121
893	1017	120
894	1018	119
895	1019	118
896	1020	117
897	1021	115
898	1021	114
899	1022	113
900	1023	112
901	1024	111
902	1025	110
903	1026	108
904	1027	107
905	1028	106
906	1029	105
907	1030	104
908	1032	103
909	1033	102
910	1034	101
911	1034	99
912	1035	98
913	1036	97
914	1037	96
915	1038	95
916	1039	94
917	1039	92
918	1040	91
919	1041	90
920	1042	89
921	1043	88
922	1044	87
923	1045	86
924	1047	84
925	1048	83
926	1049	82
927	1049	81
928	1050	80
929	1051	79
930	1052	77
931	1053	76
932	1053	75
933	1054	74
934	1055	73
935	1056	72
936	1057	71
937	1058	69
938	1059	68
939	1060	67
940	1061	66
941	1062	65
942	1063	64
943	1064	63
944	1065	61
945	1065	60
946	1066	59
947	1067	58
948	1068	57
949	1069	56
950	1070	55
951	1070	53
952	1071	52
953	1073	51
954	1074	50
955	1075	49
956	1076	48
957	1077	47
958	1078	46
959	1079	44
960	1080	43
961	1081	42
962	1081	41
963	1082	40
964	1083	39
965	1084	38
966	1085	37
967	1086	35
968	1086	34
969	1088	33
970	1089	32
971	1090	31
972	1091	30
973	1092	29
974	1093	28
975	1094	26
976	1094	25
977	1095	24
978	1096	23
979	1097	22
980	1098	21
981	1098	20
982	1099	19
983	1100	17
984	1101	16
985	1102	15
986	1103	14
987	1104	13
988	1105	12
989	1106	11
990	1107	10
991	1108	8
992	1109	7
993	1110	6
994	1111	5
995	1112	4
996	1112	3
997	1113	2
998	1114	1
999	1115	0
